486534 566091
419503 779852
118538 345828
595720 482581
28975 243645
610773 85318
181302 788576
260680 643382
837656 42996
445734 938230
403582 590352
260669 701198
222608 566975
497433 48329
800009 300354
730264 136439
749594 436093
767176 783985
593954 897020
143762 453445
703688 150850
949085 630395
155655 731405
106903 555181
174688 419264
26225 627144
646667 317486
648362 433008
804366 42360
39427 493637
236836 110092
38821 737674
778879 600753
583883 989711
786411 41754
903690 418358
364866 603660
932849 242181
979714 24330
837436 332272
69649 581612
129224 972250
274944 551414
300179 274037
967556 14911
703891 178870
619852 305431
853818 402566
543922 302535
296031 135544
667284 736941
687558 111060
641383 626108
925708 867189
706817 224342
464753 207845
802403 723825
798041 323906
566671 708428
50309 667146
487275 708278
91532 58835
794416 841946
392992 410387
876686 156729
620409 892278
19863 550911
815969 373614
232589 736987
25709 280109
125471 871636
992589 461615
698545 104665
838498 994486
866405 944557
864630 866571
688323 895005
719110 262477
648060 354813
925634 205430
817995 615572
185058 442915
204158 765634
311942 387795
705936 454744
392330 712932
593478 227639
346580 422404
465874 133714
803290 780596
208025 543813
269636 55144
933126 513047
315062 725259
163423 60218
754443 588658
619100 293839
816511 58649
8550 174355
809245 514674
91825 105028
462296 844914
141776 746800
653184 5579
163011 45422
506442 241928
498670 989019
676958 962675
879707 397774
825332 189926
816572 777575
387992 188392
205663 863592
781672 351565
834768 259513
827529 691351
709900 798808
921962 506370
322992 216442
838380 818950
967288 950571
311803 346315
215919 121849
399928 412427
444068 112523
11904 684828
282389 589855
166337 670083
864869 123363
301689 291782
529748 818475
184095 768010
637917 592170
235568 436393
116544 316421
932498 727423
859894 165425
895727 404356
627771 671805
637450 29345
853362 777288
592667 371342
913911 512869
956647 252451
386740 755859
567756 689281
652983 212354
356964 381579
704820 716695
896824 324669
649143 879436
719612 680101
324345 683823
646661 500793
815809 195644
173128 505052
715154 721399
132233 447749
303633 223937
123484 85881
341268 417323
8601 300244
229837 56350
195654 414675
832587 312945
14909 936992
419497 546722
853307 231998
84550 886089
759045 565331
125164 72042
422835 506890
836607 728492
987387 169175
567806 698561
911951 461334
383870 411440
940977 74903
939614 370689
334454 805594
700769 319230
326403 539354
918613 921556
254295 985398
254980 794087
174622 960205
337981 75201
653350 959814
19237 988000
218665 810196
945405 760901
223910 879971
632767 252807
82684 982175
663708 800358
450967 704252
122514 636712
268509 952422
479993 49420
740660 37007
987118 489778
556946 994035
606591 239814
305758 551228
124598 452211
134385 694137
733501 832361
176785 41571
474413 536688
357030 211991
388344 543213
200557 348853
581962 843226
759407 9108
706471 937059
761443 767410
703267 429194
285319 47534
127417 779164
412038 895854
725859 779427
902039 545167
275665 749544
610255 53169
654321 158996
252769 274912
127746 756564
91992 906698
374885 40853
820676 265025
562748 144529
996458 279760
270048 756338
757426 350853
112448 366372
934367 207020
363024 962792
381049 650364
192787 808986
545927 581668
753474 551616
652232 87586
522153 636405
552115 444121
531911 582339
676721 962355
994478 644225
961631 335976
974767 670530
966994 532060
93379 84830
371160 339201
351877 120725
550880 865974
508256 643258
461938 89949
517056 172103
151047 707444
647298 7240
325005 773995
396876 736212
403211 431036
736924 215898
462227 55540
595765 309634
625131 210493
632088 106796
423195 43738
388259 430494
649186 434023
941157 373753
198075 600704
293296 923229
110248 832088
145727 319184
897271 90369
179565 517325
141262 691199
849373 855468
366387 192132
856847 212069
747458 952908
783699 312476
75301 715785
589368 509926
181440 591158
176602 615398
961935 978029
514274 819369
366528 274606
178600 466964
704478 852164
876688 725838
350953 73780
146063 149146
149269 414582
478283 344652
113812 342544
594138 541573
